[TS       0][me  0][ SC_INIT]: 
[TS       0][me  1][MEM_INIT]: 
[TS     102][me  0][ SC_READ]: addr=0x00000000 
[TS     105][me  1][MEM_READ]: addr=0x00000000
[TS     115][me  0][ SC_MEMR]: addr=0x00000000 
[TS     202][me  0][ SC_READ]: addr=0x00000001 
[TS     302][me  0][ SC_WRIT]: addr=0x00000000 
[TS     402][me  0][ SC_WRIT]: addr=0x00000002 
[TS     405][me  1][MEM_WRIT]: addr=0x00000002
[TS     415][me  0][ SC_MEMR]: addr=0x00000002 
[TS     502][me  0][ SC_READ]: addr=0x00000004 
[TS     505][me  1][MEM_READ]: addr=0x00000004
[TS     515][me  0][ SC_MEMR]: addr=0x00000004 
[TS     602][me  0][ SC_READ]: addr=0x00000006 
[TS     605][me  1][MEM_WRIT]: addr=0x00000006
[TS     615][me  0][ SC_MEMR]: addr=0x00000006 
[TS     702][me  0][ SC_READ]: addr=0x00000008 
[TS     705][me  1][MEM_READ]: addr=0x00000008
[TS     715][me  0][ SC_MEMR]: addr=0x00000008 
[TS     802][me  0][ SC_READ]: addr=0x0000000a 
[TS     805][me  1][MEM_WRIT]: addr=0x0000000a
[TS     815][me  0][ SC_MEMR]: addr=0x0000000a 
[TS     902][me  0][ SC_READ]: addr=0x0000000c 
[TS     905][me  1][MEM_READ]: addr=0x0000000c
[TS     915][me  0][ SC_MEMR]: addr=0x0000000c 
