[TS         0]      lock_state_init: pid=[   0] 
[TS         0]      lock_state_lock: pid=[   0] 
[TS         0]      lock_state_lock: pid=[   0] 
[TS         0]      lock_state_lock: pid=[   0] 
[TS         0]      lock_state_lock: pid=[   0] 
[TS         0]      lock_state_lock: pid=[   0] 
[TS         0]      lock_state_lock: pid=[   0] 
[TS         0]      lock_state_lock: pid=[   0] 
[TS         0]      lock_state_lock: pid=[   0] 
[TS         0]      lock_state_lock: pid=[   0] 
[TS         0]      lock_state_lock: pid=[   0] 
[TS         0]      lock_state_lock: pid=[   0] 
[TS         0]      lock_state_lock: pid=[   0] 
[TS         0]      lock_state_lock: pid=[   0] 
[TS         0]      lock_state_lock: pid=[   0] 
[TS         0]      lock_state_lock: pid=[   0] 
[TS         0]      lock_state_lock: pid=[   0] 
[TS         0]      lock_state_lock: pid=[   0] 
[TS         0]      lock_state_lock: pid=[   0] 
[TS         0]      lock_state_lock: pid=[   0] 
[TS         0]      lock_state_lock: pid=[   0] 
[TS         0]      lock_state_lock: pid=[   0] 
[TS         0]      lock_state_lock: pid=[   0] 
[TS         0]      lock_state_lock: pid=[   0] 
[TS         0]      lock_state_lock: pid=[   0] 
[TS         0]      lock_state_lock: pid=[   0] 
[TS         0]      lock_state_lock: pid=[   0] 
[TS         0]      lock_state_lock: pid=[   0] 
[TS         0]      lock_state_lock: pid=[   0] 
[TS         0]      lock_state_lock: pid=[   0] 
[TS         0]      lock_state_lock: pid=[   0] 
[TS         0]      lock_state_lock: pid=[   0] 
[TS         0]      lock_state_lock: pid=[   0] 
[TS         0]      lock_state_lock: pid=[   0] 
[TS         0]      lock_state_lock: pid=[   0] 
[TS         0]      lock_state_lock: pid=[   0] 
[TS         0]      lock_state_lock: pid=[   0] 
[TS         0]      lock_state_lock: pid=[   0] 
[TS         0]      lock_state_lock: pid=[   0] 
[TS         0]      lock_state_lock: pid=[   0] 
[TS         0]      lock_state_lock: pid=[   0] 
[TS         0]      lock_state_lock: pid=[   0] 
[TS         0]      lock_state_lock: pid=[   0] 
[TS         0]      lock_state_lock: pid=[   0] 
[TS         0]      lock_state_lock: pid=[   0] 
[TS         0]      lock_state_lock: pid=[   0] 
[TS         0]      lock_state_lock: pid=[   0] 
[TS         0]      lock_state_lock: pid=[   0] 
[TS         0]      lock_state_lock: pid=[   0] 
[TS         0]      lock_state_lock: pid=[   0] 
[TS         0]      lock_state_lock: pid=[   0] 
[TS         0]      lock_state_lock: pid=[   0] 
[TS         0]      lock_state_lock: pid=[   0] 
[TS         0]      lock_state_lock: pid=[   0] 
[TS         0]      lock_state_lock: pid=[   0] 
[TS         0]      lock_state_lock: pid=[   0] 
[TS         0]      lock_state_lock: pid=[   0] 
[TS         0]      lock_state_lock: pid=[   0] 
[TS         0]      lock_state_lock: pid=[   0] 
[TS         0]      lock_state_lock: pid=[   0] 
[TS         0]      lock_state_lock: pid=[   0] 
[TS         0]      lock_state_lock: pid=[   0] 
[TS         0]      lock_state_lock: pid=[   0] 
[TS         0]      lock_state_lock: pid=[   0] 
[TS         0]      lock_state_lock: pid=[   0] 
[TS         0]      lock_state_lock: pid=[   0] 
[TS         0]      lock_state_lock: pid=[   0] 
[TS         0]      lock_state_lock: pid=[   0] 
[TS         0]      lock_state_lock: pid=[   0] 
[TS         0]      lock_state_lock: pid=[   0] 
[TS         0]      lock_state_lock: pid=[   0] 
[TS         0]      lock_state_lock: pid=[   0] 
[TS         0]      lock_state_lock: pid=[   0] 
[TS         0]      lock_state_lock: pid=[   0] 
[TS         0]      lock_state_lock: pid=[   0] 
[TS         0]      lock_state_lock: pid=[   0] 
[TS         0]      lock_state_lock: pid=[   0] 
[TS         0]      lock_state_lock: pid=[   0] 
[TS         0]      lock_state_lock: pid=[   0] 
[TS         0]      lock_state_lock: pid=[   0] 
[TS         0]      lock_state_lock: pid=[   0] 
[TS         0]      lock_state_lock: pid=[   0] 
[TS         0]      lock_state_lock: pid=[   0] 
[TS         0]      lock_state_lock: pid=[   0] 
[TS         0]      lock_state_lock: pid=[   0] 
[TS         0]      lock_state_lock: pid=[   0] 
[TS         0]      lock_state_lock: pid=[   0] 
[TS         0]      lock_state_lock: pid=[   0] 
[TS         0]      lock_state_lock: pid=[   0] 
[TS         0]      lock_state_lock: pid=[   0] 
[TS         0]      lock_state_lock: pid=[   0] 
[TS         0]      lock_state_lock: pid=[   0] 
[TS         0]      lock_state_lock: pid=[   0] 
[TS         0]      lock_state_lock: pid=[   0] 
[TS         0]      lock_state_lock: pid=[   0] 
[TS         0]      lock_state_lock: pid=[   0] 
[TS         0]      lock_state_lock: pid=[   0] 
[TS         0]      lock_state_lock: pid=[   0] 
[TS         0]      lock_state_lock: pid=[   0] 
[TS         0]      lock_state_lock: pid=[   0] 
[TS         0]      lock_state_lock: pid=[   0] 
[TS         0]      lock_state_lock: pid=[   0] 
[TS         0]      lock_state_lock: pid=[   0] 
[TS         0]      lock_state_lock: pid=[   0] 
[TS         0]      lock_state_lock: pid=[   0] 
[TS         0]      lock_state_lock: pid=[   0] 
[TS         0]      lock_state_lock: pid=[   0] 
[TS         0]      lock_state_lock: pid=[   0] 
[TS         0]      lock_state_lock: pid=[   0] 
[TS         0]      lock_state_lock: pid=[   0] 
[TS         2]    lock_state_unlock: pid=[   0] 
[TS         4]    lock_state_unlock: pid=[   0] 
[TS         4]    lock_state_unlock: pid=[   0] 
[TS         4]    lock_state_unlock: pid=[   0] 
[TS         4]    lock_state_unlock: pid=[   0] 
[TS         4]    lock_state_unlock: pid=[   0] 
[TS         4]    lock_state_unlock: pid=[   0] 
[TS         4]    lock_state_unlock: pid=[   0] 
[TS         4]    lock_state_unlock: pid=[   0] 
[TS         4]    lock_state_unlock: pid=[   0] 
[TS         4]    lock_state_unlock: pid=[   0] 
[TS         4]    lock_state_unlock: pid=[   0] 
[TS         4]    lock_state_unlock: pid=[   0] 
[TS         4]    lock_state_unlock: pid=[   0] 
[TS         4]    lock_state_unlock: pid=[   0] 
[TS         4]    lock_state_unlock: pid=[   0] 
[TS         4]    lock_state_unlock: pid=[   0] 
[TS         4]    lock_state_unlock: pid=[   0] 
[TS         4]    lock_state_unlock: pid=[   0] 
[TS         4]    lock_state_unlock: pid=[   0] 
[TS         4]    lock_state_unlock: pid=[   0] 
[TS         4]    lock_state_unlock: pid=[   0] 
[TS         4]    lock_state_unlock: pid=[   0] 
[TS         4]    lock_state_unlock: pid=[   0] 
[TS         4]    lock_state_unlock: pid=[   0] 
[TS         4]    lock_state_unlock: pid=[   0] 
[TS         4]    lock_state_unlock: pid=[   0] 
[TS         4]    lock_state_unlock: pid=[   0] 
[TS         4]    lock_state_unlock: pid=[   0] 
[TS         4]    lock_state_unlock: pid=[   0] 
[TS         4]    lock_state_unlock: pid=[   0] 
[TS         4]    lock_state_unlock: pid=[   0] 
[TS         4]    lock_state_unlock: pid=[   0] 
[TS         4]    lock_state_unlock: pid=[   0] 
[TS         4]    lock_state_unlock: pid=[   0] 
[TS         4]    lock_state_unlock: pid=[   0] 
[TS         4]    lock_state_unlock: pid=[   0] 
[TS         4]    lock_state_unlock: pid=[   0] 
[TS         4]    lock_state_unlock: pid=[   0] 
[TS         4]    lock_state_unlock: pid=[   0] 
[TS         4]    lock_state_unlock: pid=[   0] 
[TS         4]    lock_state_unlock: pid=[   0] 
[TS         4]    lock_state_unlock: pid=[   0] 
[TS         4]    lock_state_unlock: pid=[   0] 
[TS         4]    lock_state_unlock: pid=[   0] 
[TS         4]    lock_state_unlock: pid=[   0] 
[TS         4]    lock_state_unlock: pid=[   0] 
[TS         4]    lock_state_unlock: pid=[   0] 
[TS         4]    lock_state_unlock: pid=[   0] 
[TS         4]    lock_state_unlock: pid=[   0] 
[TS         4]    lock_state_unlock: pid=[   0] 
[TS         4]    lock_state_unlock: pid=[   0] 
[TS         4]    lock_state_unlock: pid=[   0] 
[TS         4]    lock_state_unlock: pid=[   0] 
[TS         4]    lock_state_unlock: pid=[   0] 
[TS         4]    lock_state_unlock: pid=[   0] 
[TS         4]    lock_state_unlock: pid=[   0] 
[TS         4]    lock_state_unlock: pid=[   0] 
[TS         4]    lock_state_unlock: pid=[   0] 
[TS         4]    lock_state_unlock: pid=[   0] 
[TS         4]    lock_state_unlock: pid=[   0] 
[TS         4]    lock_state_unlock: pid=[   0] 
[TS         4]    lock_state_unlock: pid=[   0] 
[TS         4]    lock_state_unlock: pid=[   0] 
[TS         4]    lock_state_unlock: pid=[   0] 
[TS         4]    lock_state_unlock: pid=[   0] 
[TS         4]    lock_state_unlock: pid=[   0] 
[TS         4]    lock_state_unlock: pid=[   0] 
[TS         4]    lock_state_unlock: pid=[   0] 
[TS         4]    lock_state_unlock: pid=[   0] 
[TS         4]    lock_state_unlock: pid=[   0] 
[TS         4]    lock_state_unlock: pid=[   0] 
[TS         4]    lock_state_unlock: pid=[   0] 
[TS         4]    lock_state_unlock: pid=[   0] 
[TS         4]    lock_state_unlock: pid=[   0] 
[TS         4]    lock_state_unlock: pid=[   0] 
[TS         4]    lock_state_unlock: pid=[   0] 
[TS         4]    lock_state_unlock: pid=[   0] 
[TS         4]    lock_state_unlock: pid=[   0] 
[TS         4]    lock_state_unlock: pid=[   0] 
[TS         4]    lock_state_unlock: pid=[   0] 
[TS         4]    lock_state_unlock: pid=[   0] 
[TS         4]    lock_state_unlock: pid=[   0] 
[TS         4]    lock_state_unlock: pid=[   0] 
[TS         4]    lock_state_unlock: pid=[   0] 
[TS         4]    lock_state_unlock: pid=[   0] 
[TS         4]    lock_state_unlock: pid=[   0] 
[TS         4]    lock_state_unlock: pid=[   0] 
[TS         4]    lock_state_unlock: pid=[   0] 
[TS         4]    lock_state_unlock: pid=[   0] 
[TS         4]    lock_state_unlock: pid=[   0] 
[TS         4]    lock_state_unlock: pid=[   0] 
[TS         4]    lock_state_unlock: pid=[   0] 
[TS         4]    lock_state_unlock: pid=[   0] 
[TS         4]    lock_state_unlock: pid=[   0] 
[TS         4]    lock_state_unlock: pid=[   0] 
[TS         4]    lock_state_unlock: pid=[   0] 
[TS         4]    lock_state_unlock: pid=[   0] 
[TS         4]    lock_state_unlock: pid=[   0] 
[TS         4]    lock_state_unlock: pid=[   0] 
[TS         4]    lock_state_unlock: pid=[   0] 
[TS         4]    lock_state_unlock: pid=[   0] 
[TS         4]    lock_state_unlock: pid=[   0] 
[TS         4]    lock_state_unlock: pid=[   0] 
[TS         4]    lock_state_unlock: pid=[   0] 
[TS         4]    lock_state_unlock: pid=[   0] 
[TS         4]    lock_state_unlock: pid=[   0] 
[TS         4]    lock_state_unlock: pid=[   0] 
[TS         4]    lock_state_unlock: pid=[   0] 
